AGO,19618000,2011
BDI,8575000,2011
BOL,10426154,2010
BRA,210707000,2017
CAF,4487000,2011
CIV,21395000,2009
CMR,19406100,2010
COD,67758000,2011
COG,4140000,2011
COL,49382000,2017
CRI,4563539,2010
CUB,11241161,2010
DOM,9378818,2010
ECU,14483499,2010
ETH,94100000,2011
GAB,1534000,2011
GHA,24233431,2010
GIN,10217591,2009
GNQ,720000,2011
GTM,14713763,2011
GUY,784894,2010
HND,8215313,2011
HTI,10085214,2010
IDN,262571000,2017
IND,1349521845,2017
JAM,2705800,2010
KEN,38610097,2009
LAO,6348800,2011
LBR,3476608,2008
LKA,20653000,2010
MDG,18866000,2008
MEX,122300000,2010
MWI,13077160,2008
NIC,5815524,2010
NPL,26620809,2011
PAN,3405813,2010
PER,29797694,2011
PHL,98390000,2010
PNG,7014000,2011
PRY,6337127,2010
RWA,10412826,2010
SLE,5997000,2011
SLV,6227000,2011
TGO,5753324,2010
THA,69519000,2011
TLS,1066409,2010
TTO,1317714,2010
TZA,43188000,2010
UGA,32939800,2011
VEN,32044000,2017
VNM,89700000,2009
YEM,23833000,2011
ZMB,13046508,2010
ZWE,12754000,2011
USA,324487000,2017
CAN,36155487,2016
RUS,143500000,2017
UKR,45668028,2011
TUR,76667864,2013
JPN,127300000,2017
KOR,48219000,2010
TWN,23197947,2011
AUS,24824091,2017
SAU,27136977,2010
DZA,36300000,2011
